Homework Five: Elastic Net Tuning
================
Carly Greutert

1.  

``` r
library(janitor)
pokemon <- clean_names(pokemon_old)
pokemon
```

    ## # A tibble: 800 x 13
    ##    number name      type_1 type_2 total    hp attack defense sp_atk sp_def speed
    ##     <dbl> <chr>     <chr>  <chr>  <dbl> <dbl>  <dbl>   <dbl>  <dbl>  <dbl> <dbl>
    ##  1      1 Bulbasaur Grass  Poison   318    45     49      49     65     65    45
    ##  2      2 Ivysaur   Grass  Poison   405    60     62      63     80     80    60
    ##  3      3 Venusaur  Grass  Poison   525    80     82      83    100    100    80
    ##  4      3 Venusaur~ Grass  Poison   625    80    100     123    122    120    80
    ##  5      4 Charmand~ Fire   <NA>     309    39     52      43     60     50    65
    ##  6      5 Charmele~ Fire   <NA>     405    58     64      58     80     65    80
    ##  7      6 Charizard Fire   Flying   534    78     84      78    109     85   100
    ##  8      6 Charizar~ Fire   Dragon   634    78    130     111    130     85   100
    ##  9      6 Charizar~ Fire   Flying   634    78    104      78    159    115   100
    ## 10      7 Squirtle  Water  <NA>     314    44     48      65     50     64    43
    ## # ... with 790 more rows, and 2 more variables: generation <dbl>,
    ## #   legendary <lgl>
…
